1 | 2: Fatemeh Rahimi
2 | 3: Fatemeh Heydari
3 | 5: Samira SarChahani
4 | 7: Mahdi Yazdan Panah
5 | 8: Ali Abedini
6 | 10: Mohammad Mahdi Omid
7 | 11: Atefeh Madadi

------------------------------
1 | 2: Fatemeh Rahimi
2 | 3: Fatemeh Heydari
3 | 4: Fatemeh Dehghan
4 | 7: Mahdi Yazdan Panah
5 | 8: Ali Abedini
6 | 10: Mohammad Mahdi Omid
7 | 12: Fatemeh Tavakoli

------------------------------
1 | 2: Fatemeh Rahimi
2 | 3: Fatemeh Heydari
3 | 4: Fatemeh Dehghan
4 | 7: Mahdi Yazdan Panah
5 | 8: Ali Abedini
6 | 13: Hamed Zare

------------------------------
1 | 2: Fatemeh Rahimi
2 | 3: Fatemeh Heydari
3 | 4: Fatemeh Dehghan
4 | 5: Samira SarChahani
5 | 6: Hadi Bagheri
6 | 7: Mahdi Yazdan Panah
7 | 8: Ali Abedini
8 | 10: Mohammad Mahdi Omid
9 | 12: Fatemeh Tavakoli

------------------------------
1 | 3: Fatemeh Heydari
2 | 4: Fatemeh Dehghan

------------------------------
